<?xml version="1.0" encoding="UTF-8"?>
<!-- Created with Inkscape (http://www.inkscape.org/) -->
<svg width="175" height="32" version="1.1" viewBox="0 0 46.302 8.4667" xmlns="http://www.w3.org/2000/svg" xmlns:rdf="http://www.w3.org/1999/02/22-rdf-syntax-ns#" xmlns:xlink="http://www.w3.org/1999/xlink">
 <defs>
  <linearGradient id="linearGradient1033">
   <stop stop-color="#f00" offset="0"/>
   <stop stop-color="#ffa800" offset="1"/>
  </linearGradient>
  <linearGradient id="linearGradient1451" x1="43.006" x2="158.17" y1="162.67" y2="108.31" gradientUnits="userSpaceOnUse" xlink:href="#linearGradient1033"/>
  <linearGradient id="linearGradient5287" x1="21.129" x2="44.537" y1="6.848" y2="1.6187" gradientTransform="matrix(.90364 0 0 .90364 2.0329 1.2557)" gradientUnits="userSpaceOnUse">
   <stop stop-color="#f00" offset="0"/>
   <stop stop-color="#ffa800" offset="1"/>
  </linearGradient>
 </defs>
 <g transform="matrix(.15169 0 0 .15138 -6.4229 -16.278)" fill="none" stroke="url(#linearGradient1451)" stroke-linecap="round" stroke-linejoin="round">
  <path d="m71.863 125.43v20.12" stroke-width="2.0288"/>
  <path d="m89.287 161.59-22.598-13.047v-26.094l22.598-13.047 22.598 13.047v26.094z" stroke-width="2.1699"/>
  <g>
   <g stroke-width="2.1699">
    <path d="m157.08 148.54v-26.094l-22.598-13.047-22.598 13.047"/>
    <path d="m66.689 148.54-22.598 13.047"/>
    <path d="m66.689 122.45-22.598-13.047"/>
   </g>
   <path d="m89.287 115.37 17.424 10.06" stroke-width="2.0288"/>
   <path d="m106.71 145.55-17.424 10.06" stroke-width="2.0288"/>
  </g>
 </g>
 <g fill="url(#linearGradient5287)" stroke-width=".12207" aria-label="Dopamin">
  <path d="m21.165 5.8422q0-0.14648 0.03906-0.27832 0.03906-0.13672 0.03906-0.29296 0-0.17578-0.0049-0.31738-0.0049-0.1416-0.03418-0.31738-0.10742 0.014648-0.10742-0.068358 0-0.029297 0.01465-0.048827 0.01465-0.024414 0.05859-0.019531-0.01953-0.068358-0.0098-0.14648 0.01465-0.083007 0.07812-0.12695v-1.0596q0.02441-0.097655 0.0293-0.16601 0.0098-0.068358 0.0098-0.16601 0-0.1123-0.03906-0.20508-0.03906-0.092772-0.03906-0.20019 0-0.043945 0.01465-0.10254 0.01953-0.063476 0.04883-0.11719 0.03418-0.058593 0.07812-0.097655 0.04883-0.039062 0.10254-0.039062h1.5332q0.30761 0 0.58105 0.14648t0.47851 0.38085q0.20508 0.22949 0.32226 0.52245 0.12207 0.28808 0.12207 0.58105v0.1123q0 0.087889-0.0049 0.24902-0.0049 0.16113-0.01465 0.32714-0.0049 0.16113-0.0098 0.29296-0.0049 0.12695-0.0049 0.15137-0.0098 0.13183-0.05859 0.23925-0.04883 0.10254-0.04883 0.21972 0 0.063476 0.02441 0.097655 0.0293 0.029297 0.06348 0.05371 0.03418 0.024414 0.05859 0.05371 0.0293 0.029297 0.0293 0.08789v0.034179q-0.10742 0.05371-0.20019 0.13672-0.08789 0.078124-0.17578 0.16601-0.08301 0.083007-0.17578 0.16113-0.09277 0.073241-0.20019 0.11719-0.05371 0.024414-0.13183 0.043945-0.07324 0.019531-0.15625 0.039062-0.07812 0.014648-0.15625 0.039062-0.07812 0.019531-0.13672 0.048827h-0.09277q-0.06348 0-0.13672 0.00488-0.07324 0-0.1416 0h-0.08789q-0.09277 0-0.24414 0.00977-0.15136 0.00488-0.32714 0-0.1709-0.00488-0.34668-0.029297-0.17578-0.024414-0.31738-0.083007t-0.23437-0.16113q-0.08789-0.10742-0.08789-0.27343zm2.539 0.14648q-0.08301 0-0.08301 0.087889 0.08301 0 0.08301-0.087889zm0.12695-0.024414q0.0049-0.014648-0.01953-0.014648-0.01953 0-0.01465 0.014648 0.0049 0.014648 0.01465 0.014648 0.0098 0 0.01953-0.014648zm0.31738-0.32226q-0.0098 0-0.04883 0.034179-0.03906 0.029297-0.08301 0.073241-0.03906 0.039062-0.07812 0.083007-0.03418 0.043945-0.03906 0.063476 0.0049 0 0.01465 0.00488 0.01465 0 0.01953 0 0.03418 0 0.06836-0.024414 0.03906-0.029297 0.06836-0.068358 0.03418-0.043945 0.05371-0.08789 0.02441-0.043945 0.02441-0.078124zm-2.4023-0.048827q0 0.039062 0.01953 0.05371 0.02441 0.00977 0.06347 0.00977 0.16113 0 0.36621 0.00488 0.20508 0.00488 0.41992-0.00488 0.21484-0.00977 0.42968-0.043945 0.21484-0.039062 0.39062-0.12695 0.17578-0.08789 0.29785-0.23437 0.12695-0.15137 0.16601-0.38085 0-0.05371 0.0049-0.19531 0.0049-0.1416 0.0098-0.29785 0.0098-0.15625 0.01465-0.29785 0.0049-0.1416 0.0049-0.19531v-0.058593q0-0.16601-0.07812-0.33691-0.07324-0.17578-0.20019-0.3125-0.12695-0.1416-0.29785-0.22949-0.16601-0.08789-0.34668-0.08789h-0.88378q-0.0049 0-0.01953 0.014648-0.0098 0.00977-0.01465 0.019531-0.0098 0.014648-0.03418 0.068358-0.02441 0.05371-0.03418 0.068358-0.05859-0.029297-0.06348-0.10254 0-0.073241 0-0.14648 0.0049-0.078124-0.01465-0.13672-0.01953-0.058593-0.1123-0.058593h-0.01465q-0.0098 0.00488-0.01953 0.019531-0.0098 0.00977-0.01465 0.014648v0.014648q0 0.083007 0.01465 0.15625 0.01953 0.068358 0.01953 0.15137 0 0.63964-0.02441 1.2549-0.01953 0.61523-0.0098 1.2549-0.02441 0.043945-0.03418 0.073241-0.0049 0.029297-0.0049 0.068359zm0.23437-0.35156q0.05371 0 0.07812 0.039062l-0.03418 0.034179q-0.04394-0.019531-0.04394-0.073241zm0.0049-0.47363q0-0.00977 0-0.034179 0.0049-0.024414 0.0049-0.034179 0.04395 0.024414 0.05371 0.043945 0.01465 0.019531 0.01465 0.058593 0 0.024414-0.0049 0.043945-0.0049 0.014648-0.0293 0.024414-0.03906-0.00977-0.03906-0.043945zm0.0049-1.0547h0.03418v0.034179h-0.03418zm0.03418-0.34179q0.01465 0.00977 0.01465 0.034179 0 0.029297-0.01465 0.034179-0.01465 0.00488-0.01465-0.034179 0-0.039062 0.01465-0.034179z"/>
  <path d="m25.12 5.5736h0.03418q0.03906 0 0.04883 0.014648 0.01465 0.014648 0.04883 0.014648 0-0.068358-0.03906-0.13183-0.03906-0.063476-0.09277-0.10254l-0.03418 0.068358q-0.03418-0.019531-0.05371-0.058593t-0.01953-0.078124h0.05859q0-0.00977 0.0098-0.034179 0.0098-0.024414 0.0049-0.034179-0.0049-0.00977-0.03418-0.048827-0.02441-0.043945-0.03418-0.05371v-1.7041q0-0.00977 0.02441-0.073241 0.0293-0.063476 0.04395-0.097655 0.24414-0.52245 0.60546-0.77147 0.36621-0.2539 0.9326-0.2539 0.12695 0 0.2539 0 0.12695-0.00488 0.2539 0.034179 0.16601 0.048827 0.33691 0.16601 0.17578 0.1123 0.32714 0.26855 0.15137 0.15137 0.25879 0.33203 0.10742 0.18066 0.13672 0.36132 0.0293 0.18554 0.0293 0.33203 0.0049 0.1416 0.0049 0.32226v0.24902q0 0.083007-0.0049 0.16113 0 0.073241-0.0049 0.15625 0 0.083007-0.0098 0.17578-0.0049 0.092772-0.01465 0.20508-0.0098 0.014648-0.02441 0.048827-0.01465 0.034179-0.03418 0.073241-0.01465 0.034179-0.0293 0.068359-0.0098 0.034179-0.01465 0.048827-0.04394 0.13183-0.09765 0.23437-0.05371 0.10254-0.12695 0.19531-0.06836 0.08789-0.15625 0.17578-0.08789 0.083007-0.20019 0.18066 0.0049 0 0.01465 0.00488 0.01465 0 0.01953 0 0.07324 0 0.16601-0.063476 0.09765-0.068359 0.18554-0.15625 0.09277-0.092772 0.16601-0.18554 0.07324-0.092772 0.09766-0.14648 0 0.00488 0 0.019531 0.0049 0.00977 0.0049 0.014648 0 0.097655-0.07812 0.21484t-0.19043 0.22949q-0.10742 0.10742-0.22461 0.19531-0.11719 0.083007-0.19531 0.1123-0.04395 0.014648-0.10742 0.039062-0.05859 0.024414-0.11719 0.048827-0.05859 0.019531-0.10254 0.034179-0.04395 0.014648-0.04883 0.014648h-0.88378q-0.14648 0-0.3125-0.083007-0.16117-0.087884-0.31742-0.20995-0.15137-0.12695-0.27832-0.26855-0.12207-0.14648-0.18554-0.25879zm1.2305 0.71776q0.0049-0.00488-0.0098-0.00977-0.0098-0.00488-0.02441-0.00488-0.01465 0-0.0293 0.00488-0.0098 0.00488-0.0049 0.00977 0.0049 0.014648 0.03418 0.014648 0.02441 0 0.03418-0.014648zm0.13672 0q0.0049-0.014648-0.03906-0.014648-0.03906 0-0.0293 0.014648 0.0098 0.014648 0.03418 0.014648 0.02441 0 0.03418-0.014648zm0.39062-0.034179h-0.01953q-0.01465 0.00488-0.06836 0.019531-0.04883 0.00977-0.06836 0.014648h0.20508q0-0.00488-0.01465-0.014648-0.0098-0.014648-0.01953-0.019531zm0.52734-0.20508q-0.05371 0.019531-0.1123 0.05371-0.05371 0.029297-0.09277 0.083007 0.01465-0.00488 0.04883-0.00977 0.03906-0.00977 0.07324-0.024414 0.03418-0.014648 0.05859-0.034179 0.0293-0.019531 0.0293-0.048827 0-0.00488-0.0049-0.00977 0-0.00488 0-0.00977zm-1.6699-0.034179q-0.02441 0-0.02441 0.034179t0.02441 0.034179 0.02441-0.034179-0.02441-0.034179zm-0.06836-0.034179q-0.02441 0-0.02441 0.034179t0.02441 0.034179 0.02441-0.034179-0.02441-0.034179zm-0.35156-0.31738q0 0.029297 0.01465 0.068359 0.01953 0.039062 0.04883 0.073241t0.06348 0.058593q0.03418 0.019531 0.06836 0.019531 0.0049 0 0.0098 0 0.0049-0.00488 0.0098-0.00488-0.01465-0.024414-0.03906-0.058593-0.01953-0.039062-0.04883-0.073241t-0.06348-0.058593q-0.0293-0.024414-0.06348-0.024414zm0.69335-2.7197q-0.09765 0.039062-0.18554 0.12207-0.08789 0.083007-0.15625 0.19043-0.06348 0.10254-0.10254 0.21972-0.03418 0.1123-0.03418 0.21972v1.1572q0 0.00977 0.0098 0.048827 0.01465 0.034179 0.02441 0.05371 0.06836 0.1709 0.16601 0.31738 0.10254 0.1416 0.23437 0.24902 0.13183 0.10254 0.28808 0.16601 0.16113 0.058593 0.35156 0.058593 0.17578 0 0.33203-0.05371t0.28808-0.14648q0.13672-0.092772 0.24902-0.21972 0.11719-0.12695 0.20508-0.26855 0-0.029297 0.0049-0.10742 0.0049-0.078124 0.0098-0.16113 0.0098-0.08789 0.01465-0.16601 0.0049-0.078124 0.0049-0.10742v-0.097655q0-0.019531 0-0.058593 0.0049-0.043945-0.03418-0.048827l-0.06836 0.1709-0.03418-0.068358q-0.0049-0.24902-0.0293-0.50292-0.01953-0.25879-0.10742-0.46386-0.08789-0.20996-0.27343-0.33691-0.18066-0.13183-0.50781-0.13183-0.26367 0-0.48828 0.1123-0.22461 0.1123-0.33203 0.36621-0.04883 0.10742-0.06348 0.22461-0.0098 0.11719-0.07324 0.21972l-0.03418-0.034179q-0.0049-0.00488-0.0049-0.05371v-0.073241q0-0.21972 0.08789-0.41015 0.09277-0.19531 0.25879-0.35156zm-0.71776 2.6611q-0.02441 0-0.02441 0.034179t0.02441 0.034179 0.02441-0.034179-0.02441-0.034179zm2.2851-2.0996v0.019531q0.0049 0.00977 0.01953 0.068358 0.01465 0.058593 0.01465 0.068358 0.0049 0.029297 0.01465 0.10254 0.0098 0.073241 0.01953 0.15625 0.0098 0.078124 0.01953 0.15137 0.0098 0.073241 0.01465 0.10254l0.03418-0.034179q0-0.00488 0-0.043945 0.0049-0.043945 0.0049-0.068359 0-0.15137-0.01465-0.3125-0.0098-0.16113-0.09277-0.29296l-0.03418 0.068358zm-0.03418-0.2539q-0.02441 0-0.02441 0.034179t0.02441 0.034179 0.02441-0.034179-0.02441-0.034179z"/>
  <path d="m28.728 5.935q0-0.024414 0-0.083007 0.0049-0.058593 0.0049-0.068359 0.05371-0.52734 0.07812-1.0205 0.0293-0.49316 0.0293-1.0254v-0.20019q0-0.1416-0.0049-0.29785 0-0.15625 0-0.29785v-0.19531q-0.05859-0.063476-0.06836-0.12207-0.0049-0.063476-0.0049-0.1416 0-0.034179 0.0098-0.078124t0.0293-0.083007q0.02441-0.039062 0.05371-0.063476 0.03418-0.024414 0.08301-0.024414h1.9775q0.19043 0 0.39062 0.083007 0.20019 0.083007 0.36132 0.22461 0.16601 0.13672 0.26855 0.32226 0.10742 0.18066 0.10742 0.37597 0 0.063476-0.01953 0.12207-0.01465 0.058593-0.01465 0.11719 0 0.05371 0.01465 0.10742 0.01953 0.048827 0.01953 0.10254 0 0.1416-0.05859 0.26367-0.05371 0.12207-0.1416 0.22949-0.08301 0.10254-0.18554 0.19531-0.10254 0.092772-0.19531 0.18066h0.03418q0.05371 0 0.10742-0.034179 0.05859-0.039062 0.09765-0.068359 0.01465-0.014648 0.05371-0.048827t0.08301-0.068358q0.04395-0.039062 0.08301-0.073241t0.05371-0.048827h0.03418v0.068358q0 0.00977-0.04883 0.058593-0.04395 0.048827-0.1123 0.11719-0.06348 0.063476-0.13672 0.13183-0.06836 0.063476-0.1123 0.10254-0.11719 0.097655-0.26855 0.15137-0.14648 0.05371-0.30273 0.078124t-0.31738 0.029297q-0.16113 0.00488-0.30761 0.00977-0.03906 0-0.13672 0.00488-0.09277 0-0.20019 0-0.10742 0-0.20508 0-0.09766-0.00488-0.13672-0.00488-0.1123 0.024414-0.20508 0.10254-0.03906-0.019531-0.05371-0.063476-0.01465-0.048827-0.01465-0.087889v-0.019531q0-0.00977 0.01465-0.063476 0.01953-0.058593 0.01953-0.073241v-0.034179q-0.0098-0.00488-0.0293-0.019531-0.01953-0.014648-0.04394-0.029297-0.01953-0.014648-0.03906-0.029297-0.01953-0.014648-0.02441-0.019531 0-0.00488-0.01953-0.00488-0.0293 0-0.04395 0.024414-0.0098 0.019531-0.0098 0.043945 0 0.043945 0.01465 0.10254 0.01953 0.058593 0.07324 0.068358v0.9912q0.03418 0.05371 0.04394 0.097655 0.0098 0.039062 0.0098 0.092772t-0.03906 0.1123q-0.03418 0.05371-0.08789 0.10254-0.04883 0.048828-0.1123 0.083007-0.05859 0.029297-0.10254 0.029297-0.0098 0-0.02441 0-0.0098-0.00488-0.09277-0.043945-0.08301-0.043945-0.15625-0.12695-0.07324-0.08789-0.07324-0.26367zm1.5429-1.2109q0.0049-0.014648-0.03906-0.014648-0.03906 0-0.0293 0.014648 0.0049 0.019531 0.03418 0.019531 0.0293 0 0.03418-0.019531zm0.43945 0q0.01953-0.00488-0.03418-0.00977-0.05371-0.00488-0.12207-0.00488-0.06348 0-0.11719 0.00488-0.04883 0.00488-0.03418 0.00977 0.01953 0.00977 0.06348 0.014648 0.04394 0.00488 0.09277 0.00488t0.09277-0.00488q0.04395-0.00488 0.05859-0.014648zm0.27343 0q0.0098-0.00488-0.01953-0.00977-0.0293-0.00488-0.06836-0.00488-0.03418 0-0.06348 0.00488t-0.01953 0.00977q0.01953 0.019531 0.08789 0.019531 0.06348 0 0.08301-0.019531zm-1.709-0.59081q0 0.039062 0.0098 0.073241t0.06348 0.043945q0.0098 0 0.04883-0.014648 0.04395-0.019531 0.05371-0.019531 0.01953-0.00488 0.05371-0.014648 0.03418-0.00977 0.06348-0.014648 0.03418-0.00977 0.05859-0.014648 0.02441-0.00977 0.0293-0.00977h1.3623q0.0049 0 0.04395-0.019531 0.03906-0.019531 0.05859-0.029297 0.20508-0.1123 0.30761-0.25879 0.10742-0.15137 0.10742-0.3955 0-0.063476-0.01953-0.12207-0.01953-0.058593-0.05371-0.1123-0.03906 0.024414-0.05371 0.068358-0.0098 0.043945-0.04883 0.068358-0.01465-0.043945-0.04883-0.10254-0.03418-0.063476-0.08301-0.1123-0.04395-0.05371-0.09765-0.08789-0.05371-0.039062-0.1123-0.039062h-1.0205q-0.06836-0.019531-0.11719-0.024414-0.04394-0.00977-0.10742-0.00977-0.03906 0-0.06836 0.019531-0.0293 0.014648-0.05859 0.034179-0.02441 0.014648-0.05371 0.034179-0.02441 0.014648-0.05859 0.014648h-0.01465q-0.0098-0.034179-0.01465-0.083007 0-0.048828-0.0098-0.092772-0.0049-0.043945-0.0293-0.073241-0.02441-0.034179-0.07812-0.034179 0 0.27832-0.0098 0.55175t-0.0293 0.55175q-0.05859 0.024414-0.06836 0.097655-0.0049 0.073241-0.0049 0.12695zm0.22949-0.70312h0.04883v0.10254q-0.03418-0.00977-0.04394-0.043945-0.0049-0.034179-0.0049-0.058593zm0.01465-0.23925q0.02441 0 0.02441 0.034179t-0.02441 0.034179-0.02441-0.034179 0.02441-0.034179zm1.8017-0.18066q0 0.05371 0.03906 0.078124l0.03418-0.034179q-0.02441-0.043945-0.07324-0.043945zm-0.13184-0.12695q-0.02441 0-0.02441 0.034179t0.02441 0.034179 0.02441-0.034179-0.02441-0.034179z"/>
  <path d="m33.596 5.7299q-0.0293 0.024414-0.07324 0.05371-0.04395 0.029297-0.09277 0.058593-0.04395 0.029297-0.08789 0.048827-0.04394 0.019531-0.07812 0.019531 0-0.087889 0.01953-0.1416 0.01953-0.05371 0.04395-0.092772 0.02441-0.039062 0.04394-0.068359t0.01953-0.063476v-0.019531q-0.05371-0.034179-0.08789-0.048827-0.03418-0.019531-0.08301-0.019531-0.04394 0-0.05859 0.024414-0.01465 0.019531-0.01465 0.058593 0 0.043945 0.01953 0.073241 0.01953 0.029297 0.01953 0.068358 0 0.1123-0.05371 0.21972-0.04883 0.10742-0.04883 0.22461v0.048827q0.0049-0.034179 0.01953-0.058593 0.01953-0.024414 0.05859-0.024414 0 0.073241-0.03906 0.12207-0.03906 0.048828-0.10254 0.078124-0.05859 0.029296-0.13184 0.043945-0.06836 0.014648-0.13183 0.014648-0.12695 0-0.22461-0.087889-0.09765-0.092772-0.09765-0.21972 0-0.15137 0.05859-0.29296 0.05859-0.14648 0.13672-0.2832 0.07812-0.1416 0.15625-0.27832 0.08301-0.13672 0.12695-0.27832 0.18066-0.54199 0.37109-1.0351 0.19531-0.49804 0.44921-1.0107 0.0049-0.00977 0.01953-0.043945 0.01465-0.034179 0.0293-0.073241 0.01953-0.043945 0.03418-0.078124t0.01953-0.043945q0.0049-0.019531 0.01953-0.068358 0.01953-0.05371 0.03906-0.10254 0.02441-0.05371 0.05371-0.092772 0.0293-0.043945 0.05859-0.043945h0.23437l0.06836 0.068358q0.0098 0.18554 0.06348 0.35644 0.05859 0.16601 0.13184 0.32714 0.07812 0.16113 0.16113 0.32226 0.08789 0.16113 0.15625 0.32714 0.13184 0.3125 0.20508 0.62499 0.07812 0.30761 0.13672 0.63476 0.01465 0.078124 0.06348 0.17578 0.05371 0.092772 0.12207 0.19531 0.06836 0.097655 0.14648 0.20508 0.07812 0.10742 0.1416 0.20996 0.06348 0.097655 0.10254 0.19531 0.04395 0.092772 0.04395 0.1709 0 0.1416-0.1123 0.20019-0.10742 0.05371-0.22461 0.05371-0.12695 0-0.20508-0.048827-0.07324-0.048828-0.12207-0.12207-0.04883-0.073241-0.07812-0.15625-0.0293-0.083007-0.06836-0.15625-0.03418-0.073241-0.08301-0.12207-0.04883-0.048827-0.13672-0.048827zm0.34179-0.21484q-0.07812 0-0.16113 0.00977-0.07812 0.00488-0.14648 0.034179h0.30761zm0.26855 0.00977q-0.01465 0-0.06836 0.014648-0.05371 0.00977-0.06348 0.019531h0.26855q-0.0098-0.00977-0.06348-0.019531-0.05371-0.014648-0.07324-0.014648zm0.41015 0.034179q0.0049-0.00488-0.01465-0.00977-0.01465-0.00488-0.03906-0.00488-0.01953 0-0.03906 0.00488-0.01465 0.00488-0.0098 0.00977 0.01465 0.014648 0.05371 0.014648t0.04883-0.014648zm0.23926-0.10254q-0.05371 0-0.07812 0.024414t-0.05859 0.078124h0.21972q0-0.043945-0.01953-0.073241-0.01465-0.029297-0.06347-0.029297zm-0.41015-0.44433q0.01465 0.00488 0.04394 0.00977 0.0293 0.00488 0.05859 0.00977 0.03418 0.00488 0.06348 0.00977 0.0293 0.00488 0.03906 0.00488 0.0049 0 0.01953 0.00488 0.01465 0 0.01953 0 0.03906 0 0.06836-0.024414 0.03418-0.024414 0.03418-0.063476 0-0.058593-0.04883-0.13183-0.043937-0.078132-0.10253-0.16114-0.053711-0.083007-0.10742-0.1709t-0.068358-0.16601v0.13672q-0.05859-0.019531-0.08301-0.073241-0.02441-0.058593-0.04395-0.11719-0.01953-0.063476-0.05859-0.10742-0.03418-0.048828-0.12207-0.048828-0.09766 0-0.1416 0.092772-0.03906 0.08789-0.06348 0.19531-0.02441 0.10254-0.05859 0.19531-0.0293 0.08789-0.10254 0.08789 0-0.024414-0.01953-0.092772-0.01465-0.073241-0.0049-0.097655 0-0.00977 0.01953-0.048828 0.01953-0.043945 0.04395-0.087889 0.02441-0.048828 0.04395-0.08789 0.02441-0.039062 0.0293-0.048827 0.01953-0.043945 0.05371-0.15625 0.03418-0.1123 0.06836-0.22949 0.03906-0.11719 0.07324-0.20996 0.03418-0.092772 0.05859-0.092772 0.0049 0 0.0098 0.00488 0.0049 0 0.01953 0.00488 0.01953 0.00488 0.01953 0.029297v-0.10253h-0.06836q0.0293-0.00977 0.03418-0.024414 0.0049-0.019531 0.0049-0.043945 0-0.058593-0.03906-0.063476-0.03418-0.00977-0.08301-0.00977-0.0098 0-0.04395 0.00488-0.0293 0-0.03906 0-0.0098 0.00977-0.02441 0.05371-0.0098 0.039062-0.0098 0.048828 0 0.00977-0.0049 0.039062-0.0049 0.029297-0.01465 0.063476-0.0049 0.034179-0.0098 0.068358-0.0049 0.029297-0.0049 0.034179-0.0293 0.087889-0.08301 0.23925-0.04883 0.14648-0.10742 0.30273-0.05859 0.15625-0.11719 0.29785-0.05859 0.1416-0.10254 0.21484-0.0098 0.00977-0.03906 0.039062-0.0293 0.029296-0.05859 0.068358-0.0293 0.039062-0.05371 0.083007-0.02441 0.039062-0.02441 0.068359 0 0.00488 0 0.00977 0.0049 0.00488 0.0049 0.00977 0.0049 0.00488 0.01465 0.019531 0.01465 0.00977 0.01953 0.00977zm-0.07324-0.89354q0 0.034179 0.0098 0.058593t0.0293 0.05371q0.0098-0.00488 0.01953-0.014648 0.01465-0.014648 0.01465-0.019531 0.0049-0.00488 0.0049-0.019531 0-0.029297-0.0293-0.043945-0.02441-0.014648-0.04883-0.014648z"/>
  <path d="m36.34 5.9447q0-0.75194 0.05371-1.5039t0.05371-1.5039q0-0.11719-0.03906-0.22461-0.03418-0.10742-0.03418-0.22461 0-0.12695 0.07324-0.20019 0.07812-0.073241 0.20508-0.073241 0.08789 0 0.1416 0.014648 0.05859 0.014648 0.13183 0.092772 0.03418 0.13183 0.07812 0.26367 0.04883 0.12695 0.16113 0.21484 0.03418 0.048828 0.12207 0.1709 0.08789 0.12207 0.18554 0.25879 0.09765 0.13183 0.18554 0.2539 0.08789 0.12207 0.12207 0.1709 0.0049 0.00977 0.03418 0.058593 0.0293 0.048827 0.06348 0.11719 0.03906 0.063476 0.07812 0.13183 0.03906 0.063476 0.06348 0.10254 0.02441 0.043945 0.0293 0.073241 0.0098 0.024414 0.01465 0.039062 0.0098 0.014648 0.01953 0.019531 0.01465 0.00488 0.04883 0.00488 0.06836 0 0.12695-0.068359 0.05859-0.068358 0.10742-0.16113 0.04883-0.092772 0.08789-0.18066 0.03906-0.092772 0.07324-0.13672 0.04395-0.05371 0.15136-0.19043 0.10742-0.13672 0.22461-0.28808 0.12207-0.15625 0.22461-0.28808 0.10742-0.13672 0.15136-0.19043 0.03906-0.083007 0.06836-0.16113 0.03418-0.083007 0.07812-0.14648 0.04395-0.063476 0.10742-0.10254 0.06836-0.039062 0.1709-0.039062 0.10742 0 0.18554 0.058593 0.07812 0.05371 0.07812 0.17578 0 0.083007-0.01465 0.16601-0.0098 0.083007-0.05859 0.15137v0.048828q0 0.029297-0.0049 0.063476 0 0.034179 0 0.068358v0.20019q0 0.097655 0.03906 0.16601v2.2168q0.0049 0.024414 0.01465 0.083007 0.0098 0.058593 0.01953 0.12207 0.0098 0.063476 0.01953 0.12207 0.0098 0.058593 0.01465 0.083007v0.034179q0 0.068358-0.03418 0.13183-0.03418 0.063476-0.08789 0.1123-0.05371 0.048827-0.12207 0.078124-0.06836 0.024414-0.13183 0.019531-0.16113-0.014648-0.21972-0.1123-0.05859-0.10254-0.05859-0.23437 0-0.32226 0.03906-0.63964 0.03906-0.31738 0.03906-0.64452v-0.12695q0-0.078124-0.0049-0.15625 0-0.078124 0-0.13672v-0.063476q0-0.014648-0.0049-0.05371 0-0.039062-0.0098-0.08789-0.0049-0.048827-0.01953-0.092772-0.01465-0.048828-0.03418-0.073241l-0.03418 0.034179v0.30761q0 0.078124-0.0049 0.27343-0.0049 0.19043-0.01465 0.41015-0.0049 0.21484-0.0098 0.41015-0.0049 0.19043-0.0049 0.26855-0.01465-0.043945-0.02441-0.15625-0.0098-0.1123-0.01953-0.2539-0.0098-0.1416-0.02441-0.29296-0.0098-0.15137-0.0293-0.27832-0.01953-0.12695-0.04394-0.20508-0.02441-0.083007-0.06348-0.083007-0.0049 0-0.01953 0.00488-0.0098 0-0.01465 0.00488-0.01953 0.019531-0.06836 0.068359-0.04883 0.043945-0.10254 0.10254-0.05371 0.05371-0.10254 0.10254-0.04883 0.043945-0.06836 0.063476-0.05371 0.05371-0.10742 0.12695-0.05371 0.073241-0.1123 0.13672-0.05859 0.063476-0.13183 0.10742-0.06836 0.043945-0.15625 0.043945-0.16601 0-0.28808-0.1123-0.11719-0.1123-0.21972-0.24902t-0.20508-0.24902q-0.09766-0.1123-0.22949-0.1123-0.03906 0-0.05859 0.00977-0.01465 0.00977-0.02441 0.063476-0.04883 0.32226-0.04395 0.64452 0.0049 0.32226-0.02441 0.64941l-0.034027-0.23925v-1.5332l-0.10254-0.23925q-0.0098 0.1416-0.01953 0.26367-0.0049 0.11719-0.0098 0.22461t-0.0098 0.21484q0 0.10254 0 0.21484v0.32714q0 0.12695-0.0049 0.21484 0 0.087889 0 0.16601 0.0049 0.078124 0.01465 0.16113 0.0098 0.083007 0.0293 0.19043 0 0.00977 0.0098 0.058593 0.0098 0.043945 0.02441 0.097655 0.01465 0.048827 0.02441 0.097655 0.0098 0.043945 0.0098 0.05371v0.05371q0 0.10742-0.08301 0.20019-0.07812 0.08789-0.19043 0.08789-0.08301 0-0.16113-0.039062-0.07324-0.039062-0.13183-0.10254-0.05371-0.063476-0.08789-0.1416-0.03418-0.078124-0.03418-0.15625zm2.7002-2.0166q-0.0098 0.014648-0.04883 0.068358-0.03906 0.05371-0.05371 0.068359l-0.06836 0.068358q-0.0293 0.039062-0.07812 0.10254-0.04394 0.058593-0.08789 0.12207-0.04395 0.058593-0.07812 0.10254-0.0293 0.043945-0.0293 0.048827l-0.03418 0.13183q0.0049 0.00488 0.01953 0.00488 0.01465 0 0.01465-0.00488 0.0049 0 0.01465-0.00977 0.01465-0.014648 0.01953-0.024414l0.44433-0.6787zm0.10254-0.13672q-0.01465-0.00488-0.01465 0.019531 0 0.019531 0.01465 0.014648 0.01465-0.00488 0.01465-0.014648 0-0.00977-0.01465-0.019531zm-2.2851-0.23925v0.068358h0.03418v-0.068358zm2.4218 0q-0.02441 0-0.02441 0.034179t0.02441 0.034179 0.02441-0.034179-0.02441-0.034179z"/>
  <path d="m41.013 6.3305q0-0.00488 0-0.00977 0.0049-0.00488 0.0098-0.00977 0.0049-0.00488 0.0293-0.024414 0.02441-0.019531 0.03418-0.019531h0.64452q-0.0293-0.043945-0.08301-0.068358-0.04883-0.024414-0.10742-0.034179-0.05371-0.014648-0.1123-0.014648-0.05859-0.00488-0.10254-0.00488-0.14648 0-0.28808 0.05371-0.13672 0.05371-0.27832 0.05371-0.0098 0-0.05859 0-0.04395-0.00488-0.05859-0.00488-0.05859-0.043945-0.09766-0.11719-0.03906-0.078124-0.03906-0.15137v-0.068359q0-0.063476 0.01465-0.11719 0.01953-0.058593 0.08789-0.058593h0.44433q0.04394 0 0.05371-0.039062 0.01465-0.039062 0.01465-0.078124v-0.043945q0-0.083007-0.01953-0.14648-0.01953-0.068359-0.01953-0.14648 0-0.083007 0.0049-0.1416 0.0098-0.058593 0.03418-0.15137v-2.3193q0-0.00488-0.01465-0.014648-0.0098-0.014648-0.01953-0.019531h-0.01953q-0.0293 0-0.07812 0.024414-0.04395 0.024414-0.04395 0.058593 0 0.048827 0.01953 0.087889 0.01953 0.034179 0.01953 0.08789v0.073241q0 0.043945-0.05371 0.043945-0.03906 0-0.1123-0.063476-0.07324-0.068358-0.1416-0.15625-0.06836-0.087889-0.12207-0.17578-0.04883-0.08789-0.04883-0.13183 0-0.019531 0.0049-0.068358 0.0049-0.048828 0.01953-0.097655 0.01465-0.048828 0.03906-0.08789 0.0293-0.039062 0.07324-0.039062h1.4306q0.03906 0 0.08789 0.05371t0.04883 0.083007v0.37597q0 0.039062-0.05371 0.083007-0.04883 0.039062-0.1123 0.078124-0.06348 0.034179-0.12695 0.058593-0.06348 0.024414-0.08301 0.024414-0.05859 0-0.06348-0.043945-0.0049-0.048827-0.0098-0.10742-0.0049-0.058593-0.04394-0.10254-0.03418-0.048827-0.15625-0.048827v2.7539q-0.04883 0.05371-0.06348 0.1123-0.0098 0.05371-0.0098 0.12207 0 0.014648 0 0.043945 0.0049 0.024414 0.07324 0.058593h0.44433q0.04883 0 0.08301 0.034179t0.05371 0.083007q0.01953 0.043945 0.02441 0.092772 0.0098 0.048827 0.0098 0.083007 0 0.10254-0.04883 0.15137-0.04883 0.048828-0.1123 0.078124-0.05859 0.024414-0.12207 0.048828-0.06348 0.019531-0.09277 0.078124h-0.74706q-0.0049 0-0.01953-0.00977-0.0098-0.014648-0.01465-0.024414-0.0049-0.014648-0.0049-0.019531z"/>
  <path d="m42.771 5.8568q0-0.10742 0.0049-0.18554t0.0293-0.20019q0-0.063476 0-0.19531 0-0.13672 0-0.30273 0.0049-0.16601 0.0098-0.35156 0.0049-0.19043 0.0049-0.35644 0.0049-0.16601 0.0098-0.29785 0.0049-0.13672 0.0098-0.20019 0.0098-0.19043 0.03906-0.37597 0.0293-0.19043 0.0293-0.38085 0-0.14648-0.03906-0.2832-0.03418-0.1416-0.03418-0.28808 0-0.24902 0.2539-0.24902h0.07812q0.04883 0 0.06348 0.014648 0.01953 0.014648 0.08789 0.058593l0.03418 0.034179q0.15136 0.27343 0.35156 0.54199 0.20019 0.26855 0.41503 0.53222 0.21484 0.26367 0.42968 0.52245 0.21972 0.25879 0.40527 0.52245 0.02441 0.034179 0.06836 0.10254 0.04883 0.063476 0.09766 0.13672 0.04883 0.068358 0.08789 0.12695 0.04395 0.058593 0.05371 0.073241 0.0293 0.043945 0.05859 0.11719 0.03418 0.073241 0.07324 0.14648 0.04395 0.073241 0.09277 0.12695 0.05371 0.05371 0.11719 0.05371 0.03418 0 0.03418-0.034179v-0.039062q0-0.029297 0-0.058593 0.0049-0.034179 0.0049-0.063476v-0.043945q0-0.12207-0.03906-0.22461-0.03418-0.10254-0.03418-0.21484v-2.29q0-0.024414 0.03418-0.05371 0.03418-0.029297 0.07812-0.05371 0.04883-0.029296 0.09277-0.043945 0.04395-0.019531 0.06836-0.019531 0.0293 0.00488 0.06836 0.014648 0.03906 0.00977 0.07812 0.024414 0.03906 0.014648 0.07324 0.039062 0.03906 0.024414 0.05371 0.058593v0.36132q0 0.61523-0.0049 1.2207t-0.06348 1.2158q-0.02441 0.00488-0.03418 0.024414-0.0049 0.019531-0.0098 0.043945 0 0.019531 0 0.043945 0.0049 0.019531 0.0049 0.024414 0 0.092772 0.01465 0.18554 0.01953 0.08789 0.03906 0.18066 0.02441 0.08789 0.03906 0.18066 0.01953 0.08789 0.01953 0.18066 0 0.029297-0.01465 0.092772-0.01465 0.058593-0.03906 0.12207-0.02441 0.063476-0.05859 0.11719-0.0293 0.05371-0.06348 0.068358-0.01465 0-0.06348 0.00488-0.04394 0-0.05371 0h-0.10254q-0.04883 0-0.08789-0.039062l-0.44444-0.44433-1.2598-1.5332-0.23926-0.23925q-0.0049-0.00488-0.01953-0.00488-0.02441 0-0.03906 0.029297-0.0098 0.024414-0.01953 0.063476-0.0098 0.034179-0.02441 0.068359-0.0098 0.034179-0.03418 0.048827l-0.03418-0.034179q0-0.024414-0.0049-0.08789t-0.01465-0.13183q-0.0049-0.073241-0.0098-0.13672t-0.0049-0.08789q-0.0049-0.024414-0.0098-0.063476 0-0.043945-0.0098-0.083007-0.0049-0.043945-0.02441-0.078124-0.01953-0.034179-0.05859-0.048827-0.0049 0.05371-0.01465 0.18554-0.0049 0.12695-0.0098 0.27343t-0.0098 0.27832q0 0.13183 0 0.18554v0.068359q0 0.058593-0.0049 0.13672 0 0.073241 0 0.14648v0.21972q0 0.063476 0 0.12695 0.0049 0.058593 0.0049 0.10254v0.048827q0 0.024414 0.0049 0.097655 0.0098 0.068358 0.01953 0.15137 0.0098 0.078124 0.01953 0.15625 0.01465 0.073241 0.02441 0.10742 0 0.00977 0.0098 0.039062 0.0098 0.029297 0.02441 0.063476 0.01465 0.034179 0.02441 0.068358 0.0098 0.029297 0.0098 0.034179v0.019531q0 0.05371-0.03906 0.10742-0.03906 0.05371-0.09277 0.097655-0.05371 0.039062-0.11719 0.063476-0.06348 0.024414-0.1123 0.024414-0.08789 0-0.15625-0.048828-0.06348-0.05371-0.10742-0.13183-0.04395-0.078124-0.06836-0.16601-0.02441-0.087889-0.02441-0.16113zm2.0117-0.72753q0.06347 0.10742 0.15136 0.20996 0.08789 0.10254 0.17578 0.20508 0.08789 0.10254 0.16601 0.21484 0.07812 0.10742 0.12207 0.22461 0.03418 0 0.03418-0.034179 0-0.014648-0.01465-0.068359-0.0098-0.05371-0.01953-0.068358-0.0293-0.034179-0.10742-0.12695-0.07812-0.092772-0.16601-0.19531-0.08789-0.10254-0.16601-0.19531-0.07812-0.092772-0.10742-0.13183l-0.03418-0.034179h-0.014647zm-0.27343-0.37597v0.034179h0.03418zm-0.06348-0.097655q-0.01953-0.00488-0.01953 0.014648 0 0.019531 0.01953 0.014648 0.01465-0.00488 0.01465-0.014648 0-0.00488-0.01465-0.014648zm-0.10254-0.13672q-0.01953-0.00488-0.01953 0.014648 0 0.024414 0.01953 0.019531 0.01465-0.00488 0.01465-0.019531 0-0.00488-0.01465-0.014648zm-0.30761-0.37597 0.03418 0.068358v-0.068358zm-0.13671-0.20508q-0.02441 0-0.02441 0.034179t0.02441 0.034179 0.02441-0.034179-0.02441-0.034179zm-0.54687-0.71776q-0.0098-0.019531-0.01465 0.034179 0 0.05371 0 0.12207 0 0.063476 0 0.11719 0.0049 0.048827 0.01465 0.034179 0.0049-0.019531 0.0098-0.063476t0.0049-0.092772q0-0.048828-0.0049-0.092772-0.0049-0.043945-0.0098-0.058593z"/>
 </g>
 <metadata>
  <rdf:RDF/>
 </metadata>
</svg>
